{
  "id" : "urn:ngsi:NoiseLevelObserved:HOPac67b2cd449a",
  "type" : "NoiseLevelObserved",
  "LA1" : 77.4000015,
  "LA10" : 72.0625,
  "LA50" : 69.5833358,
  "LA90" : 68.7649536,
  "LA99" : 58.2999992,
  "LAeq" : 61.9445495,
  "LAmax" : 84.0899963,
  "LAmin" : 54.0299987,
  "TimeInstant" : "2022-01-17T14:08:05.00Z",
  "dataProvider" : "www.hopu.eu",
  "dateObserved" : "2022-01-17T14:08:05.195Z/2022-01-17T14:13:05.195Z",
  "dateObservedFrom" : "2022-01-17T14:08:05.00Z",
  "dateObservedTo" : "2022-01-17T14:13:05.00Z",
  "location" : {
    "type" : "Point",
    "coordinates" : [ -1.2153559, 37.9688796 ]
  },
  "name" : "Plaza de la Constitucion",
  "operationalStatus" : "CONNECTED",
  "period" : 5,
  "sonometerClass" : "2",
  "source" : "www.hopu.eu",
  "state": "OK",
  "dateModified" : "2022-01-17T14:08:08.00Z"
}
