{
  "id": "urn:ngsi-ld:AirQualityObserved:HOPac67b2cd449a",
  "type": "AirQualityObserved",
  "CO": {
    "value": 557.2999877,
    "type": "Property"
  },
  "H2S": {
    "value": 6.222001,
    "type": "Property"
  },
  "NO": {
    "value": 0,
    "type": "Property"
  },
  "NO2": {
    "value": 67.5699996,
    "type": "Property"
  },
  "O3": {
    "value": 9.2700004,
    "type": "Property"
  },
  "PM1": {
    "value": 11.5716304,
    "type": "Property"
  },
  "PM10": {
    "value": 34.0724067,
    "type": "Property"
  },
  "PM25": {
    "value": 17.5279903,
    "type": "Property"
  },
  "SO2": {
    "value": 7.4699997,
    "type": "Property"
  },
  "TimeInstant": {
    "value": "2022-01-17T11:05:05.00Z",
    "type": "Property"
  },
  "VOC": {
    "value": 533.5060424,
    "type": "Property"
  },
  "dataProvider": {
    "value": "www.hopu.eu",
    "type": "Property"
  },
  "ica": {
    "value": true,
    "type": "Property"
  },
  "location": {
    "type": "GeoProperty",
    "value": {
      "type": "Point",
      "coordinates": [
        -1.2153559,
        37.9688796
      ]
    }
  },
  "name": {
    "value": "Plaza de la Constitución",
    "type": "Property"
  },
  "operationalStatus": {
    "value": "CONNECTED",
    "type": "Property"
  },
  "particulates": {
    "value": [
      "PM1",
      "PM10",
      "PM25"
    ],
    "type": "Property"
  },
  "pollutants": {
    "value": [
      "CO",
      "H2S",
      "NO",
      "NO2",
      "O3",
      "SO2",
      "VOC"
    ],
    "type": "Property"
  },
  "source": {
    "value": "www.hopu.eu",
    "type": "Property"
  },
  "state": {
    "value": "OK",
    "type": "Property"
  },
  "dateModified": {
    "value": "2022-01-17T11:06:18.00Z",
    "type": "Property"
  },
  "@context": [
    "https://uri.etsi.org/ngsi-ld/v1/ngsi-ld-core-context.jsonld",
    "https://raw.githubusercontent.com/smart-data-models/dataModel.Environment/master/context.jsonld"
  ]
}
