{
    "id": "urn:ngsi:OffStreetParking:LasRozas_Parking_avdadelaconstitucion",
    "type": "OffStreetParking",
    "TimeInstant": "2023-11-24T10:41:01Z",
    "areaServed": "redparking",
    "dataProvider": "www.libelium.com",
    "source": "www.libelium.com",
    "name": "APARCAMIENTO CONSTITUCION",
    "location": {
        "type": "Point",
        "coordinates": [
            -3.878189,
            40.491566
        ]
    },
    "totalSpotNumber": 550,
    "availableSpotNumber": 237,
    "occupiedSpotNumber": 313,
    "occupancyModified": "2023-11-24T10:21:01Z",
    "occupancy": 0.57,
    "vehicleEntranceCount": 149,
    "vehicleExitCount": 151,
    "address": "AVDA. DE LA CONSTITUCION",
    "municipality": "lasrozas",
    "description": "LAS ROZAS INNOVA",
    "operationalStatus": "CONNECTED",
    "state": "OK",
    "status": "spacesAvailable",
    "dataModified": "2023-11-24T10:41:01Z"
}