{
  "id": "urn:ngsi-ld:WeatherObserved:HOPac67b2cd42f6",
  "type": "WeatherObserved",
  "TimeInstant": {
    "value": "2022-01-17T14:19:36.00Z",
    "type": "Property"
  },
  "UV": {
    "value": 25.5,
    "type": "Property"
  },
  "atmosphericPressure": {
    "value": 1028.5821533,
    "type": "Property"
  },
  "dailyEvapotranspiration": {
    "value": 0,
    "type": "Property"
  },
  "dataProvider": {
    "value": "www.hopu.eu",
    "type": "Property"
  },
  "dayEvapotranspiration": {
    "value": 0,
    "type": "Property"
  },
  "dewPoint": {
    "value": 3.8888888,
    "type": "Property"
  },
  "forecastIcon": {
    "value": 6,
    "type": "Property"
  },
  "heatIndex": {
    "value": 15,
    "type": "Property"
  },
  "location": {
    "value": {
      "type": "Point",
      "coordinates": [
        -1.220028,
        37.9682502
      ]
    },
    "type": "GeoProperty"
  },
  "monthEvapotranspiration": {
    "value": 0,
    "type": "Property"
  },
  "name": {
    "value": "Plaza de la Inmaculada",
    "type": "Property"
  },
  "operationalStatus": {
    "value": "CONNECTED",
    "type": "Property"
  },
  "precipitation": {
    "value": 0,
    "type": "Property"
  },
  "precipitation15MinAvg": {
    "value": 0,
    "type": "Property"
  },
  "precipitationDaily": {
    "value": 0,
    "type": "Property"
  },
  "precipitationDay": {
    "value": 0,
    "type": "Property"
  },
  "precipitationLast24Hour": {
    "value": 0,
    "type": "Property"
  },
  "precipitationLastHour": {
    "value": 0,
    "type": "Property"
  },
  "precipitationMonth": {
    "value": 4,
    "type": "Property"
  },
  "precipitationStorm": {
    "value": 0,
    "type": "Property"
  },
  "precipitationYear": {
    "value": 4,
    "type": "Property"
  },
  "refDevice": {
    "value": "urn:ngsi:Device:HOPac67b2cd42f6",
    "type": "Property"
  },
  "relativeHumidity": {
    "value": 42,
    "type": "Property"
  },
  "solarRadiation": {
    "value": 32767,
    "type": "Property"
  },
  "source": {
    "value": "www.hopu.eu",
    "type": "Property"
  },
  "state": {
    "value": "OK",
    "type": "Property"
  },
  "temperature": {
    "value": 16.7222213,
    "type": "Property"
  },
  "thswIndex": {
    "value": 123.8888854,
    "type": "Property"
  },
  "windChill": {
    "value": 16.666666,
    "type": "Property"
  },
  "windDirection": {
    "value": 94,
    "type": "Property"
  },
  "windDirection10MinAvg": {
    "value": 67,
    "type": "Property"
  },
  "windSpeed": {
    "value": 0,
    "type": "Property"
  },
  "windSpeed10MinAvg": {
    "value": 0,
    "type": "Property"
  },
  "windSpeed10MinGust": {
    "value": 1.6093399,
    "type": "Property"
  },
  "yearEvapotranspiration": {
    "value": 0,
    "type": "Property"
  },
  "dateModified": {
    "value": "2022-01-17T14:21:51.00Z",
    "type": "Property"
  },
  "@context": [
    "https://uri.etsi.org/ngsi-ld/v1/ngsi-ld-core-context.jsonld",
    "https://raw.githubusercontent.com/smart-data-models/dataModel.Environment/master/context.jsonld"
  ]
}
