{
  "id": "urn:ngsi:CrowdFlowObserved:HOPc44f33227adf",
  "type": "CrowdFlowObserved",
  "address": {
    "type": "Text",
    "value": "Carrer Valencia, 51",
    "metadata": {}
  },
  "dataProvider": {
    "type": "Text",
    "value": "www.hopu.eu",
    "metadata": {}
  },
  "location": {
    "type": "geo:json",
    "value": {
      "type": "Point",
      "coordinates": [
        39.679222,
        -0.222898
      ]
    },
    "metadata": {}
  },
  "peopleCountHighRange": {
    "type": "Number",
    "value": 126,
    "metadata": {}
  },
  "peopleCountLowerRange": {
    "type": "Number",
    "value": 24,
    "metadata": {}
  },
  "peopleCountMediumRange": {
    "type": "Number",
    "value": 53,
    "metadata": {}
  },
  "source": {
    "type": "Text",
    "value": "www.hopu.eu",
    "metadata": {}
  },
  "dateModified": {
    "type": "DateTime",
    "value": "2021-02-12T10:05:21.00Z",
    "metadata": {}
  }
}