{
  "id": "urn:ngsi:DeviceModel:HOPc44f33227aff",
  "type": "DeviceModel",
  "brandName": "SmartSpot",
  "controlledProperty": [
    "airQuality",
    "particleMatter"
  ],
  "dataProvider": "www.hopu.eu",
  "description": "AirQuality, ParticulateMatter SmartSpot",
  "documentation": "http://www.hopu.eu/downloads/",
  "source": "www.hopu.eu",
  "supportedProtocol": "OMA LWM2M"
}