{
  "id": "urn:ngsi-ld:Device:HOP40f520691d02",
  "type": "Device",
  "TimeInstant": {
    "type": "Property",
    "value": "2022-01-17T14:16:36.00Z"
  },
  "dataProvider": {
    "value": "www.hopu.eu",
    "type": "Property"
  },
  "location": {
    "value": {
      "type": "Point",
      "coordinates": [
        -1.213561,
        37.969338
      ]
    },
    "type": "GeoProperty"
  },
  "name": {
    "value": "Plaza de la Constitución",
    "type": "Property"
  },
  "operationalStatus": {
    "value": "CONNECTED",
    "type": "Property"
  },
  "source": {
    "value": "www.hopu.eu",
    "type": "Property"
  },
  "state": {
    "value": "OK",
    "type": "Property"
  },
  "dateModified": {
    "value": "2022-01-17T14:16:36.00Z",
    "type": "Property"
  },
  "@context": [
    "https://uri.etsi.org/ngsi-ld/v1/ngsi-ld-core-context.jsonld",
    "https://raw.githubusercontent.com/smart-data-models/dataModel.Environment/master/context.jsonld"
  ]
}
