{
  "id": "urn:ngsi:WaterQualityObserved:HOP00d7eb941ace",
  "type": "WaterQualityObserved",
  "TimeInstant": "2022-01-17T11:05:05.00Z",
  "O2": 0,
  "bod": 0,
  "conductivity": 0,
  "location": {
    "type": "Point",
    "coordinates": [
        -1.271313,
        38.077034
      ]
  },
  "name": "Libelium Murcia - Calidad del Agua",
  "operationalStatus": "CONNECTED",
  "orp": 0,
  "pH": 0,
  "salinity": 0,
  "saturatedOxygen": 0,
  "source": "www.hopu.eu",
  "state": "OK",
  "tds": 0,
  "temperature": 0,
  "turbidity": 0,
  "waterQualityAttrs": [
    "O2",
    "bod",
    "conductivity",
    "orp",
    "pH",
    "salinity",
    "saturatedOxygen",
    "tds",
    "temperature",
    "turbidity"
  ],
  "dateModified": "2022-01-17T11:06:18.00Z"
}