{
  "id": "urn:ngsi:WaterQualityObserved:HOP00d7eb941ace",
  "type": "WaterQualityObserved",
  "TimeInstant": {
    "type": "DateTime",
    "value": "2023-03-09T11:30:44.00Z",
    "metadata": {}
  },
  "O2": {
    "type": "Number",
    "value": 0,
    "metadata": {
      "dateObserved": {
        "type": "DateTime",
        "value": "2023-03-09T11:30:44.00Z"
      },
      "description": {
        "type": "Text",
        "value": "Level of free, non-compound oxygen present."
      },
      "unit": {
        "type": "Text",
        "value": "59"
      }
    }
  },
  "bod": {
    "type": "Number",
    "value": 0,
    "metadata": {
      "dateObserved": {
        "type": "DateTime",
        "value": "2023-03-09T11:30:44.00Z"
      },
      "description": {
        "type": "Text",
        "value": "Biochemical oxygen demand is the amount of dissolved oxygen needed by aerobic biological organisms to break down organic material present in a given water sample at certain temperature over a specific time period"
      },
      "unit": {
        "type": "Text",
        "value": "M1"
      }
    }
  },
  "conductivity": {
    "type": "Number",
    "value": 0,
    "metadata": {
      "dateObserved": {
        "type": "DateTime",
        "value": "2023-03-09T11:30:44.00Z"
      },
      "description": {
        "type": "Text",
        "value": "Electrical Conductivity."
      },
      "unit": {
        "type": "Text",
        "value": "uS/cm"
      }
    }
  },
  "location": {
    "type": "geo:json",
    "value": {
      "type": "Point",
      "coordinates": [
        -1.271313,
        38.077034
      ]
    },
    "metadata": {}
  },
  "name": {
    "type": "Text",
    "value": "Libelium Murcia - Calidad del Agua",
    "metadata": {}
  },
  "operationalStatus": {
    "type": "Text",
    "value": "CONNECTED",
    "metadata": {
      "dateObserved": {
        "type": "DateTime",
        "value": "2022-01-17T11:06:18.00Z"
      },
      "description": {
        "type": "Text",
        "value": "Status of vertical"
      },
      "ranges": {
        "type": "Text",
        "value": "CONNECTED|DISCONNECTED"
      }
    }
  },
  "orp": {
    "type": "Number",
    "value": 0,
    "metadata": {
      "dateObserved": {
        "type": "DateTime",
        "value": "2023-03-09T11:30:44.00Z"
      },
      "description": {
        "type": "Text",
        "value": "Oxidation-Reduction potential"
      },
      "unit": {
        "type": "Text",
        "value": "2Z"
      }
    }
  },
  "pH": {
    "type": "Number",
    "value": 0,
    "metadata": {
      "dateObserved": {
        "type": "DateTime",
        "value": "2023-03-09T11:30:44.00Z"
      },
      "description": {
        "type": "Text",
        "value": "Acidity or basicity of an aqueous solution."
      },
      "unit": {
        "type": "Text",
        "value": "Q30"
      }
    }
  },
  "salinity": {
    "type": "Number",
    "value": 0,
    "metadata": {
      "dateObserved": {
        "type": "DateTime",
        "value": "2023-03-09T11:30:44.00Z"
      },
      "description": {
        "type": "Text",
        "value": "Amount of salts dissolved in water."
      },
      "unit": {
        "type": "Text",
        "value": "GL"
      }
    }
  },
  "saturatedOxygen": {
    "type": "Number",
    "value": 0,
    "metadata": {
      "dateObserved": {
        "type": "DateTime",
        "value": "2023-03-09T11:30:44.00Z"
      },
      "description": {
        "type": "Text",
        "value": "Saturated oxygen"
      },
      "unit": {
        "type": "Text",
        "value": "H93"
      }
    }
  },
  "state": {
    "type": "Text",
    "value": "OK",
    "metadata": {
      "description": {
        "type": "Text",
        "value": "Status of integration"
      },
      "ranges": {
        "type": "Text",
        "value": "OK|MAINTENANCE|DATA_RECOVERY"
      }
    }
  },
  "tds": {
    "type": "Number",
    "value": 0,
    "metadata": {
      "dateObserved": {
        "type": "DateTime",
        "value": "2023-03-09T11:30:44.00Z"
      },
      "description": {
        "type": "Text",
        "value": "Total dissolved solids."
      },
      "unit": {
        "type": "Text",
        "value": "59"
      }
    }
  },
  "temperature": {
    "type": "Number",
    "value": 0,
    "metadata": {
      "dateObserved": {
        "type": "DateTime",
        "value": "2023-03-09T11:30:44.00Z"
      },
      "description": {
        "type": "Text",
        "value": "Temperature."
      },
      "unit": {
        "type": "Text",
        "value": "CEL"
      }
    }
  },
  "turbidity": {
    "type": "Number",
    "value": 0,
    "metadata": {
      "dateObserved": {
        "type": "DateTime",
        "value": "2023-03-09T11:30:44.00Z"
      },
      "description": {
        "type": "Text",
        "value": "Amount of light scattered by particles in the water column."
      },
      "unit": {
        "type": "Text",
        "value": "NTU"
      }
    }
  },
  "waterQualityAttrs": {
    "type": "List",
    "value": [
      "O2",
      "bod",
      "conductivity",
      "orp",
      "pH",
      "salinity",
      "saturatedOxygen",
      "tds",
      "temperature",
      "turbidity"
    ],
    "metadata": {
      "show": {
        "type": "Boolean",
        "value": true
      }
    }
  },
  "dateModified": {
    "type": "DateTime",
    "value": "2023-04-20T06:44:15.00Z",
    "metadata": {}
  }
}
