{
  "id" : "urn:ParkingSpot:Ceuti_PK_1",
  "type" : "ParkingSpot",
  "TimeInstant" : "2022-01-17T11:05:05.00Z",
  "areaServed": "redparking",
  "batteryStatus": "good",
  "category": "onStreet",
  "dataProvider" : "www.libelium.com",
  "location" : {
    "type" : "Point",
    "coordinates" : [ -1.2153559, 37.9688796 ]
  },
  "municipality": "ceuti",
  "name" : "Libelium Murcia - Parking 1",
  "operationalStatus" : "CONNECTED",
  "source" : "www.libelium.com",
  "state": "OK",
  "status": "free",
  "dateModified" : "2022-01-17T11:06:18.00Z"
}